{
	"color": "#ff6890b7",
	"description": "",
	"display_name": "",
	"display_name_bool": false,
	"id": "character-1634125499.json",
	"mirror_portraits": false,
	"name": "Chris",
	"nickname": "",
	"nickname_bool": false,
	"offset_x": -40,
	"offset_y": 0,
	"portraits": [
		{
			"name": "Default",
			"path": "res://Assets/Character/Chris Pasfoto.png"
		}
	],
	"scale": 100
}
