{
	"events": [
		{
			"action": "join",
			"character": "character-1634125499.json",
			"event_id": "dialogic_002",
			"mirror": false,
			"portrait": "",
			"position": {
				"0": true,
				"1": false,
				"2": false,
				"3": false,
				"4": false
			}
		},
		{
			"character": "character-1634125499.json",
			"event_id": "dialogic_001",
			"portrait": "",
			"text": "Where is Dad?\nHe usually picks me up.\nHnn maybe I should wait for a few minutes."
		},
		{
			"event_id": "dialogic_023",
			"wait_seconds": 1.5
		},
		{
			"action": "join",
			"character": "character-1634200847.json",
			"event_id": "dialogic_002",
			"mirror": false,
			"portrait": "",
			"position": {
				"0": false,
				"1": false,
				"2": false,
				"3": false,
				"4": true
			}
		},
		{
			"character": "character-1634200847.json",
			"event_id": "dialogic_001",
			"portrait": "",
			"text": "Hey, boy.  Can you help me?"
		},
		{
			"character": "character-1634125499.json",
			"event_id": "dialogic_010",
			"options": [

			],
			"portrait": "",
			"question": "Hnn.. me?"
		},
		{
			"choice": "Yeah, sure.",
			"condition": "",
			"definition": "",
			"event_id": "dialogic_011",
			"value": ""
		},
		{
			"choice": "Why me?",
			"condition": "",
			"definition": "",
			"event_id": "dialogic_011",
			"value": ""
		},
		{
			"character": "character-1634200847.json",
			"event_id": "dialogic_001",
			"portrait": "",
			"text": "Because only you are still in here.\nAnd I cannot help myself."
		},
		{
			"character": "character-1634125499.json",
			"event_id": "dialogic_001",
			"portrait": "",
			"text": "Well.."
		},
		{
			"event_id": "dialogic_013"
		},
		{
			"character": "character-1634200847.json",
			"event_id": "dialogic_001",
			"portrait": "",
			"text": "My son want a video game.\nCan you buy any video game for me?\nI think you can find what's trending right now."
		},
		{
			"character": "character-1634125499.json",
			"event_id": "dialogic_001",
			"portrait": "",
			"text": "Okay."
		},
		{
			"event_id": "dialogic_022",
			"transition_duration": 0.5
		}
	],
	"metadata": {
		"dialogic-version": "1.3",
		"file": "timeline-1634200833.json",
		"name": "help security"
	}
}
