{
	"events": [
		{
			"action": "join",
			"character": "character-1634125499.json",
			"event_id": "dialogic_002",
			"mirror": false,
			"portrait": "",
			"position": {
				"0": true,
				"1": false,
				"2": false,
				"3": false,
				"4": false
			}
		},
		{
			"character": "character-1634125499.json",
			"event_id": "dialogic_001",
			"portrait": "",
			"text": "Damn!! Why this blackout should happens tonight??\nMy phone died and I cannot charge it.\nUggghhh!"
		},
		{
			"event_id": "dialogic_022",
			"transition_duration": 0.5
		}
	],
	"metadata": {
		"dialogic-version": "1.2.5",
		"file": "timeline-1634306182.json",
		"name": "blackout"
	}
}
