{
	"events": [
		{
			"action": "join",
			"character": "character-1634200847.json",
			"event_id": "dialogic_002",
			"mirror": false,
			"portrait": "",
			"position": {
				"0": false,
				"1": false,
				"2": false,
				"3": false,
				"4": true
			}
		},
		{
			"character": "character-1634200847.json",
			"event_id": "dialogic_001",
			"portrait": "",
			"text": "Help me to buy any trending video game for my son."
		},
		{
			"event_id": "dialogic_022",
			"transition_duration": 0.5
		}
	],
	"metadata": {
		"dialogic-version": "1.2.5",
		"file": "timeline-1634203555.json",
		"name": "hint security"
	}
}
